<?xml version="1.0" encoding="UTF-8"?>
<svg width="12px" height="12px" viewBox="0 0 12 12" version="1.1" xmlns="http://www.w3.org/2000/svg" xmlns:xlink="http://www.w3.org/1999/xlink">
    <!-- Generator: Sketch 42 (36781) - http://www.bohemiancoding.com/sketch -->
    <title>cross</title>
    <desc>Created with Sketch.</desc>
    <defs></defs>
    <g id="Welcome" stroke="none" stroke-width="1" fill="none" fill-rule="evenodd">
        <path d="M7.42556338,5.99952113 L11.7036479,1.72143662 C12.0974507,1.3276338 12.0974507,0.68915493 11.7036479,0.295408451 C11.3098451,-0.0983943662 10.6714225,-0.0983943662 10.2776197,0.295408451 L5.99947887,4.5735493 L1.72133803,0.295352113 C1.32753521,-0.0984507042 0.689112676,-0.0984507042 0.295309859,0.295352113 C-0.0984366197,0.68915493 -0.0984366197,1.3276338 0.295309859,1.72138028 L4.5734507,5.99946479 L0.295309859,10.2776056 C-0.0984366197,10.6714085 -0.0984366197,11.3098873 0.295309859,11.7036338 C0.689112676,12.0974366 1.32753521,12.0974366 1.72133803,11.7036338 L5.99947887,7.42549296 L10.2776197,11.7036338 C10.6713662,12.0974366 11.3098451,12.0974366 11.7036479,11.7036338 C12.0974507,11.309831 12.0974507,10.6714085 11.7036479,10.2776056 L7.42556338,5.99952113 Z" id="cross" fill="#000000" fill-rule="nonzero"></path>
    </g>
</svg>