<?xml version="1.0" encoding="UTF-8"?>
<svg width="10px" height="10px" viewBox="0 0 10 10" version="1.1" xmlns="http://www.w3.org/2000/svg" xmlns:xlink="http://www.w3.org/1999/xlink">
    <!-- Generator: Sketch 42 (36781) - http://www.bohemiancoding.com/sketch -->
    <title>single-angle</title>
    <desc>Created with Sketch.</desc>
    <defs></defs>
    <g id="Unity" stroke="none" stroke-width="1" fill-rule="evenodd">
        <path d="M1,9 L1,0 L1.45519152e-11,0 L1.45519152e-11,9.5 L1.11022302e-13,10 L10,10 L10,9 L1,9 Z" id="single-angle"></path>
    </g>
</svg>
